[
    {
        "orderId": "order01",
        "productId": "product01",
        "quantity": 1,
        "price": 45,
        "subtotal": 45
    },
    {
        "orderId": "order02",
        "productId": "product02",
        "quantity": 1,
        "price": 500,
        "subtotal": 500
    },
    {
        "orderId": "order03",
        "productId": "product03",
        "quantity": 2,
        "price": 16,
        "subtotal": 32
    }
]