[
    {
        "_id": "product01",
        "name": "football",
        "description": "a football",
        "price": 45,
        "stocks": 32,
        "isActive": true,
        "sku": "032-321"
    },
    {
        "_id": "product02",
        "name": "camera",
        "description": "a camera",
        "price": 500,
        "stocks": 50,
        "isActive": true,
        "sku": "032-564"
    },
    {
        "_id": "product03",
        "name": "book",
        "description": "a book",
        "price": 16,
        "stocks": 123,
        "isActive": true,
        "sku": "032-564"
    }
]